Exponential Smoothing HW
…
  Initial states:
     l[0]
 7.020174

  sigma^2:  2.7228

     AIC     AICc      BIC 
261.5110 262.0110 267.3647 

components(fit) %>%
  left_join(fitted(fit), by = c("Country", ".model", "Year"))

# A dable: 53 x 7 [1Y]
# Key:     Country, .model [1]
# :        Exports = lag(level, 1) + remainder
   Country .model  Year Exports level remainder .fitted
   <fct>   <chr>  <dbl>   <dbl> <dbl>     <dbl>   <dbl>
 1 Brazil  ANN     1959   NA     7.02   NA        NA   
 2 Brazil  ANN     1960    7.06  7.05    0.0389    7.02
 3 Brazil  ANN     1961    7.28  7.24    0.227     7.05
 4 Brazil  ANN     1962    3.87  4.44   -3.37      7.24
 5 Brazil  ANN     1963    9.04  8.26    4.60      4.44
 6 Brazil  ANN     1964    6.39  6.70   -1.87      8.26
 7 Brazil  ANN     1965    7.74  7.56    1.03      6.70
 8 Brazil  ANN     1966    6.82  6.95   -0.736     7.56
 9 Brazil  ANN     1967    5.77  5.97   -1.18      6.95
10 Brazil  ANN     1968    6.00  6.00    0.0317    5.97
# ... with 43 more rows
…
  Initial states:
     l[0]     b[0]
 6.950245 0.092892

  sigma^2:  2.8257

     AIC     AICc      BIC 
265.3180 266.6223 275.0742 

components(fit2) %>%
  left_join(fitted(fit2), by = c("Country", ".model", "Year"))

# A dable: 53 x 8 [1Y]
# Key:     Country, .model [1]
# :        Exports = lag(level, 1) + lag(slope, 1) + remainder
   Country .model  Year Exports level  slope remainder .fitted
   <fct>   <chr>  <dbl>   <dbl> <dbl>  <dbl>     <dbl>   <dbl>
 1 Brazil  AAN     1959   NA     6.95 0.0929   NA        NA   
 2 Brazil  AAN     1960    7.06  7.06 0.0929    0.0159    7.04
 3 Brazil  AAN     1961    7.28  7.26 0.0929    0.130     7.15
 4 Brazil  AAN     1962    3.87  4.52 0.0926   -3.48      7.35
 5 Brazil  AAN     1963    9.04  8.21 0.0930    4.43      4.61
 6 Brazil  AAN     1964    6.39  6.74 0.0928   -1.92      8.31
 7 Brazil  AAN     1965    7.74  7.57 0.0929    0.900     6.84
 8 Brazil  AAN     1966    6.82  6.98 0.0928   -0.837     7.66
 9 Brazil  AAN     1967    5.77  6.01 0.0927   -1.30      7.07
10 Brazil  AAN     1968    6.00  6.02 0.0927   -0.104     6.10
# ... with 43 more rows
…
